%YAML 1.1
%TAG !u! tag:unity3d.com,2011:
--- !u!21 &2100000
Material:
  serializedVersion: 6
  m_ObjectHideFlags: 0
  m_CorrespondingSourceObject: {fileID: 0}
  m_PrefabInstance: {fileID: 0}
  m_PrefabAsset: {fileID: 0}
  m_Name: Shader Graphs_ToonTank 1
  m_Shader: {fileID: -6465566751694194690, guid: c8222dc104d5ab94db36eae015c942c7, type: 3}
  m_ShaderKeywords: 
  m_LightmapFlags: 4
  m_EnableInstancingVariants: 0
  m_DoubleSidedGI: 0
  m_CustomRenderQueue: -1
  stringTagMap: {}
  disabledShaderPasses: []
  m_SavedProperties:
    serializedVersion: 3
    m_TexEnvs:
    - unity_Lightmaps:
        m_Texture: {fileID: 0}
        m_Scale: {x: 1, y: 1}
        m_Offset: {x: 0, y: 0}
    - unity_LightmapsInd:
        m_Texture: {fileID: 0}
        m_Scale: {x: 1, y: 1}
        m_Offset: {x: 0, y: 0}
    - unity_ShadowMasks:
        m_Texture: {fileID: 0}
        m_Scale: {x: 1, y: 1}
        m_Offset: {x: 0, y: 0}
    m_Floats:
    - Vector1_3f8e70641e2f4d2d87fa66c47613a8b9: 4
    - Vector1_50e4b2264d064d22ba4d8635ba83310f: 0.262
    - _Smoothness: 0.59
    m_Colors:
    - Color_7174af1a06264f4baff061a27a018237: {r: 1, g: 1, b: 1, a: 1}
    - Color_a8dacc67b25d47d5a3357ace392534af: {r: 0.8679245, g: 0.8679245, b: 0.8679245, a: 1}
    - _SpecularCol: {r: 0.8207547, g: 0.8207547, b: 0.8207547, a: 1}
  m_BuildTextureStacks: []
