%YAML 1.1
%TAG !u! tag:unity3d.com,2011:
--- !u!21 &2100000
Material:
  serializedVersion: 6
  m_ObjectHideFlags: 0
  m_CorrespondingSourceObject: {fileID: 0}
  m_PrefabInstance: {fileID: 0}
  m_PrefabAsset: {fileID: 0}
  m_Name: Shader Graphs_HalfToneShadedTank
  m_Shader: {fileID: -6465566751694194690, guid: c0944921386164747926e72ed46233ae, type: 3}
  m_ShaderKeywords: 
  m_LightmapFlags: 4
  m_EnableInstancingVariants: 0
  m_DoubleSidedGI: 0
  m_CustomRenderQueue: -1
  stringTagMap: {}
  disabledShaderPasses: []
  m_SavedProperties:
    serializedVersion: 3
    m_TexEnvs:
    - Texture2D_1aacb121b60f43a4aea94c8bb0e03712:
        m_Texture: {fileID: 2800000, guid: 2dd56b6beba1dd94aa319e98a4eea7a5, type: 3}
        m_Scale: {x: 1, y: 1}
        m_Offset: {x: 0, y: 0}
    - _SampleTexture2D_5394ddbae9fe4bc6a21ca17acb2ad731_Texture_1:
        m_Texture: {fileID: 2800000, guid: 2dd56b6beba1dd94aa319e98a4eea7a5, type: 3}
        m_Scale: {x: 1, y: 1}
        m_Offset: {x: 0, y: 0}
    - unity_Lightmaps:
        m_Texture: {fileID: 0}
        m_Scale: {x: 1, y: 1}
        m_Offset: {x: 0, y: 0}
    - unity_LightmapsInd:
        m_Texture: {fileID: 0}
        m_Scale: {x: 1, y: 1}
        m_Offset: {x: 0, y: 0}
    - unity_ShadowMasks:
        m_Texture: {fileID: 0}
        m_Scale: {x: 1, y: 1}
        m_Offset: {x: 0, y: 0}
    m_Floats:
    - Vector1_3f8e70641e2f4d2d87fa66c47613a8b9: 4
    - Vector1_50e4b2264d064d22ba4d8635ba83310f: 0.3
    - _Smoothness: 0.3
    m_Colors:
    - Color_7174af1a06264f4baff061a27a018237: {r: 1, g: 1, b: 1, a: 0}
    - Color_a8dacc67b25d47d5a3357ace392534af: {r: 1, g: 1, b: 1, a: 1}
    - Vector2_6162c672867c4c3bbf552c9f8f37b216: {r: 2, g: 2, b: 0, a: 0}
    - _SpecularCol: {r: 1, g: 1, b: 1, a: 1}
  m_BuildTextureStacks: []
