%YAML 1.1
%TAG !u! tag:unity3d.com,2011:
--- !u!162 &1
EditorUserSettings:
  m_ObjectHideFlags: 0
  serializedVersion: 4
  m_ConfigSettings:
    RecentlyUsedScenePath-0:
      value: 22424703114646680e0b0227036c6c111b07142f1f2b233e2867083debf42d
      flags: 0
    RecentlyUsedScenePath-1:
      value: 22424703114646680e0b0227036c6f021903173e35382323621d1c3de9d23d3bede43eecf30e3a2f2d4cfa320d2a18
      flags: 0
    RecentlyUsedScenePath-2:
      value: 22424703114646680e0b0227036c6f021903173e3538232362191132fbe52615e3f333fbee3b33083c11fb721130082beb
      flags: 0
    RecentlyUsedScenePath-3:
      value: 22424703114646680e0b0227036c6f021903173e35382323620e0f32f1f3042aedf339fdfe2a3a722c0ce6281d
      flags: 0
    RecentlyUsedScenePath-4:
      value: 22424703114646680e0b0227036c6f021903173e35382323621d1c3de9c11d08f0e822e6f3232f397717e1351027
      flags: 0
    UnityEditor.ShaderGraph.Blackboard:
      value: 18135939215a0a5004000b0e15254b524c030a3f2964643d120d1230e9e93a3fd6e826abbd2e2d293c4ead313b08042de6030a0afa240c0d020be94c4ba85e435d8715fa32c70d15d11612dacc11fee5d3c5d1fe9ab1b688908fecb0f9cfddf1eff4e7a1b1eae482f0fdaee1e1928b86d888ed909c968797a7cf
      flags: 0
    UnityEditor.ShaderGraph.FloatingWindowsLayout2:
      value: 181344140043005e1a220d3b1f364b524c0c5a27130c293326201334cee5322ca0bd30e8eb293a707b0fd0180b3d0a36fc0d3d04e649500d1002ee0b5dbd1d2c27c00ad113cb1e10e41f1addc80993b9829884a69ae6d8f0d1cda9e8fbfefaf9f9dea3fdb9ade882f0f9b0e1e380cafbf2c3adc18e9cd285a2908b80e8819c8395949c9483d48e8997ddbd90bf
      flags: 0
    UnityEditor.ShaderGraph.InspectorWindow:
      value: 18135939215a0a5004000b0e15254b524c1119263f2d6a722016393ce1eb3d36e5d339f9a5602b2e2c07a37e0901373ae01e0008f707250d171df81a53a5425d41895ac825e0100ec20313c0d91cddccd3d0c7efcca9bd8e908fecb0f9cfddf1eff4e7a1b1eae482f0fcade2e1928b86d888ed979e9f8797a7cf
      flags: 0
    vcSharedLogLevel:
      value: 0d5e400f0650
      flags: 0
  m_VCAutomaticAdd: 1
  m_VCDebugCom: 0
  m_VCDebugCmd: 0
  m_VCDebugOut: 0
  m_SemanticMergeMode: 2
  m_VCShowFailedCheckout: 1
  m_VCOverwriteFailedCheckoutAssets: 1
  m_VCProjectOverlayIcons: 1
  m_VCHierarchyOverlayIcons: 1
  m_VCOtherOverlayIcons: 1
  m_VCAllowAsyncUpdate: 1
