%YAML 1.1
%TAG !u! tag:unity3d.com,2011:
--- !u!1001 &2893935986130665605
PrefabInstance:
  m_ObjectHideFlags: 0
  serializedVersion: 2
  m_Modification:
    m_TransformParent: {fileID: 0}
    m_Modifications:
    - target: {fileID: 448954061571048735, guid: 5c3f5477f34ce604ebe66fea2c5c886d, type: 3}
      propertyPath: maxHealth
      value: 100
      objectReference: {fileID: 0}
    - target: {fileID: 448954061571048735, guid: 5c3f5477f34ce604ebe66fea2c5c886d, type: 3}
      propertyPath: startingHealth
      value: 100
      objectReference: {fileID: 0}
    - target: {fileID: 2627551231142867403, guid: 5c3f5477f34ce604ebe66fea2c5c886d, type: 3}
      propertyPath: rotationSpeed
      value: 1
      objectReference: {fileID: 0}
    - target: {fileID: 4439799481796675750, guid: 5c3f5477f34ce604ebe66fea2c5c886d, type: 3}
      propertyPath: m_Materials.Array.size
      value: 1
      objectReference: {fileID: 0}
    - target: {fileID: 4439799481796675750, guid: 5c3f5477f34ce604ebe66fea2c5c886d, type: 3}
      propertyPath: m_Materials.Array.data[0]
      value: 
      objectReference: {fileID: 0}
    - target: {fileID: 4439799481796675750, guid: 5c3f5477f34ce604ebe66fea2c5c886d, type: 3}
      propertyPath: m_Materials.Array.data[1]
      value: 
      objectReference: {fileID: 0}
    - target: {fileID: 4439799481796675750, guid: 5c3f5477f34ce604ebe66fea2c5c886d, type: 3}
      propertyPath: m_Materials.Array.data[2]
      value: 
      objectReference: {fileID: 0}
    - target: {fileID: 4439799481796675750, guid: 5c3f5477f34ce604ebe66fea2c5c886d, type: 3}
      propertyPath: m_Materials.Array.data[3]
      value: 
      objectReference: {fileID: 0}
    - target: {fileID: 4477405476410567017, guid: 5c3f5477f34ce604ebe66fea2c5c886d, type: 3}
      propertyPath: m_Speed
      value: 0
      objectReference: {fileID: 0}
    - target: {fileID: 4477405476410567017, guid: 5c3f5477f34ce604ebe66fea2c5c886d, type: 3}
      propertyPath: m_Enabled
      value: 1
      objectReference: {fileID: 0}
    - target: {fileID: 4477405476410567017, guid: 5c3f5477f34ce604ebe66fea2c5c886d, type: 3}
      propertyPath: m_AutoBraking
      value: 0
      objectReference: {fileID: 0}
    - target: {fileID: 4477405476410567017, guid: 5c3f5477f34ce604ebe66fea2c5c886d, type: 3}
      propertyPath: m_Acceleration
      value: 0
      objectReference: {fileID: 0}
    - target: {fileID: 4477405476410567017, guid: 5c3f5477f34ce604ebe66fea2c5c886d, type: 3}
      propertyPath: m_AngularSpeed
      value: 0
      objectReference: {fileID: 0}
    - target: {fileID: 4477405476410567017, guid: 5c3f5477f34ce604ebe66fea2c5c886d, type: 3}
      propertyPath: m_StoppingDistance
      value: 0.1
      objectReference: {fileID: 0}
    - target: {fileID: 5251274285641153389, guid: 5c3f5477f34ce604ebe66fea2c5c886d, type: 3}
      propertyPath: m_RootOrder
      value: 0
      objectReference: {fileID: 0}
    - target: {fileID: 5251274285641153389, guid: 5c3f5477f34ce604ebe66fea2c5c886d, type: 3}
      propertyPath: m_LocalPosition.x
      value: 2.334
      objectReference: {fileID: 0}
    - target: {fileID: 5251274285641153389, guid: 5c3f5477f34ce604ebe66fea2c5c886d, type: 3}
      propertyPath: m_LocalPosition.y
      value: 0
      objectReference: {fileID: 0}
    - target: {fileID: 5251274285641153389, guid: 5c3f5477f34ce604ebe66fea2c5c886d, type: 3}
      propertyPath: m_LocalPosition.z
      value: 0
      objectReference: {fileID: 0}
    - target: {fileID: 5251274285641153389, guid: 5c3f5477f34ce604ebe66fea2c5c886d, type: 3}
      propertyPath: m_LocalRotation.w
      value: 1
      objectReference: {fileID: 0}
    - target: {fileID: 5251274285641153389, guid: 5c3f5477f34ce604ebe66fea2c5c886d, type: 3}
      propertyPath: m_LocalRotation.x
      value: 0.000000021855694
      objectReference: {fileID: 0}
    - target: {fileID: 5251274285641153389, guid: 5c3f5477f34ce604ebe66fea2c5c886d, type: 3}
      propertyPath: m_LocalRotation.y
      value: 0
      objectReference: {fileID: 0}
    - target: {fileID: 5251274285641153389, guid: 5c3f5477f34ce604ebe66fea2c5c886d, type: 3}
      propertyPath: m_LocalRotation.z
      value: -0
      objectReference: {fileID: 0}
    - target: {fileID: 5251274285641153389, guid: 5c3f5477f34ce604ebe66fea2c5c886d, type: 3}
      propertyPath: m_LocalEulerAnglesHint.x
      value: 0
      objectReference: {fileID: 0}
    - target: {fileID: 5251274285641153389, guid: 5c3f5477f34ce604ebe66fea2c5c886d, type: 3}
      propertyPath: m_LocalEulerAnglesHint.y
      value: 0
      objectReference: {fileID: 0}
    - target: {fileID: 5251274285641153389, guid: 5c3f5477f34ce604ebe66fea2c5c886d, type: 3}
      propertyPath: m_LocalEulerAnglesHint.z
      value: 0
      objectReference: {fileID: 0}
    - target: {fileID: 5251274285641574029, guid: 5c3f5477f34ce604ebe66fea2c5c886d, type: 3}
      propertyPath: m_Name
      value: BlackEnemyTank Variant
      objectReference: {fileID: 0}
    - target: {fileID: 5251274285641574029, guid: 5c3f5477f34ce604ebe66fea2c5c886d, type: 3}
      propertyPath: m_TagString
      value: Enemy
      objectReference: {fileID: 0}
    - target: {fileID: 5251274285643577853, guid: 5c3f5477f34ce604ebe66fea2c5c886d, type: 3}
      propertyPath: m_Materials.Array.data[0]
      value: 
      objectReference: {fileID: 2100000, guid: 191f11819ca231041bfda6c289dcfca2, type: 2}
    - target: {fileID: 5251274285643577855, guid: 5c3f5477f34ce604ebe66fea2c5c886d, type: 3}
      propertyPath: m_Materials.Array.data[0]
      value: 
      objectReference: {fileID: 2100000, guid: 191f11819ca231041bfda6c289dcfca2, type: 2}
    - target: {fileID: 7699916840210033895, guid: 5c3f5477f34ce604ebe66fea2c5c886d, type: 3}
      propertyPath: followPathSmoothness
      value: 0.5
      objectReference: {fileID: 0}
    - target: {fileID: 7699916840210033895, guid: 5c3f5477f34ce604ebe66fea2c5c886d, type: 3}
      propertyPath: shouldShootActions.Array.size
      value: 2
      objectReference: {fileID: 0}
    - target: {fileID: 7699916840210033895, guid: 5c3f5477f34ce604ebe66fea2c5c886d, type: 3}
      propertyPath: useEquipmentActions.Array.size
      value: 0
      objectReference: {fileID: 0}
    - target: {fileID: 7699916840210033895, guid: 5c3f5477f34ce604ebe66fea2c5c886d, type: 3}
      propertyPath: shouldShootActions.Array.data[0]
      value: 
      objectReference: {fileID: 11400000, guid: ac017fecec1c69541bd0997028bd32b6, type: 2}
    - target: {fileID: 7699916840210033895, guid: 5c3f5477f34ce604ebe66fea2c5c886d, type: 3}
      propertyPath: shouldShootActions.Array.data[1]
      value: 
      objectReference: {fileID: 11400000, guid: 487ca80659864ef4a91c85282de48d15, type: 2}
    - target: {fileID: 7699916840210033895, guid: 5c3f5477f34ce604ebe66fea2c5c886d, type: 3}
      propertyPath: useEquipmentActions.Array.data[0]
      value: 
      objectReference: {fileID: 11400000, guid: 31fd0532825d35e41a748427c4df2716, type: 2}
    - target: {fileID: 7699916840210033895, guid: 5c3f5477f34ce604ebe66fea2c5c886d, type: 3}
      propertyPath: calculateDirectionActions.Array.size
      value: 2
      objectReference: {fileID: 0}
    - target: {fileID: 7699916840210033895, guid: 5c3f5477f34ce604ebe66fea2c5c886d, type: 3}
      propertyPath: calculateAimPositionActions.Array.size
      value: 1
      objectReference: {fileID: 0}
    - target: {fileID: 7699916840210033895, guid: 5c3f5477f34ce604ebe66fea2c5c886d, type: 3}
      propertyPath: calculateDirectionActions.Array.data[0]
      value: 
      objectReference: {fileID: 11400000, guid: f8f2f9ff260372942b917625f6b6e446, type: 2}
    - target: {fileID: 7699916840210033895, guid: 5c3f5477f34ce604ebe66fea2c5c886d, type: 3}
      propertyPath: calculateDirectionActions.Array.data[1]
      value: 
      objectReference: {fileID: 11400000, guid: a0b40da817ec18b48ae9b6bdceabe9d9, type: 2}
    - target: {fileID: 7699916840210033895, guid: 5c3f5477f34ce604ebe66fea2c5c886d, type: 3}
      propertyPath: calculateMovePositionActions.Array.size
      value: 2
      objectReference: {fileID: 0}
    - target: {fileID: 7699916840210033895, guid: 5c3f5477f34ce604ebe66fea2c5c886d, type: 3}
      propertyPath: calculateAimPositionActions.Array.data[0]
      value: 
      objectReference: {fileID: 11400000, guid: 0208ab2b43a04394d91b5d8fbc6386c6, type: 2}
    - target: {fileID: 7699916840210033895, guid: 5c3f5477f34ce604ebe66fea2c5c886d, type: 3}
      propertyPath: calculateAimPositionActions.Array.data[1]
      value: 
      objectReference: {fileID: 11400000, guid: 91c141d19a2e2c543a638ec31809b057, type: 2}
    - target: {fileID: 7699916840210033895, guid: 5c3f5477f34ce604ebe66fea2c5c886d, type: 3}
      propertyPath: calculateAimPositionActions.Array.data[2]
      value: 
      objectReference: {fileID: 11400000, guid: 91c141d19a2e2c543a638ec31809b057, type: 2}
    - target: {fileID: 7699916840210033895, guid: 5c3f5477f34ce604ebe66fea2c5c886d, type: 3}
      propertyPath: calculateMovePositionActions.Array.data[0]
      value: 
      objectReference: {fileID: 11400000, guid: 70dacff0aa8232c4e931fe6c3867aa1b, type: 2}
    - target: {fileID: 7699916840210033895, guid: 5c3f5477f34ce604ebe66fea2c5c886d, type: 3}
      propertyPath: calculateMovePositionActions.Array.data[1]
      value: 
      objectReference: {fileID: 11400000, guid: 033cba69165c02147821da8ce0c430af, type: 2}
    - target: {fileID: 7699916840210033895, guid: 5c3f5477f34ce604ebe66fea2c5c886d, type: 3}
      propertyPath: calculateMovePositionActions.Array.data[2]
      value: 
      objectReference: {fileID: 11400000, guid: 033cba69165c02147821da8ce0c430af, type: 2}
    - target: {fileID: 8876376956708879231, guid: 5c3f5477f34ce604ebe66fea2c5c886d, type: 3}
      propertyPath: turnSpeed
      value: 10
      objectReference: {fileID: 0}
    - target: {fileID: 8876376956708879231, guid: 5c3f5477f34ce604ebe66fea2c5c886d, type: 3}
      propertyPath: useManhattanMovement
      value: 0
      objectReference: {fileID: 0}
    m_RemovedComponents: []
  m_SourcePrefab: {fileID: 100100000, guid: 5c3f5477f34ce604ebe66fea2c5c886d, type: 3}
--- !u!1 &6974128938646169096 stripped
GameObject:
  m_CorrespondingSourceObject: {fileID: 5251274285641574029, guid: 5c3f5477f34ce604ebe66fea2c5c886d, type: 3}
  m_PrefabInstance: {fileID: 2893935986130665605}
  m_PrefabAsset: {fileID: 0}
--- !u!114 &-7752782975625075689
MonoBehaviour:
  m_ObjectHideFlags: 0
  m_CorrespondingSourceObject: {fileID: 0}
  m_PrefabInstance: {fileID: 0}
  m_PrefabAsset: {fileID: 0}
  m_GameObject: {fileID: 6974128938646169096}
  m_Enabled: 0
  m_EditorHideFlags: 0
  m_Script: {fileID: 11500000, guid: 77d6d9a7edee79548a11efd927914dcb, type: 3}
  m_Name: 
  m_EditorClassIdentifier: 
  canvasDebugDisplayPrefab: {fileID: 4629600808938082875, guid: 29b37c7a45d69fa45925fd1bb5dce1b9, type: 3}
  heightPositionOffset: 10
