%YAML 1.1
%TAG !u! tag:unity3d.com,2011:
--- !u!114 &11400000
MonoBehaviour:
  m_ObjectHideFlags: 0
  m_CorrespondingSourceObject: {fileID: 0}
  m_PrefabInstance: {fileID: 0}
  m_PrefabAsset: {fileID: 0}
  m_GameObject: {fileID: 0}
  m_Enabled: 1
  m_EditorHideFlags: 0
  m_Script: {fileID: 11500000, guid: aeffd39aa8d2b9340bc32360c2b37b59, type: 3}
  m_Name: TestEnemyTank
  m_EditorClassIdentifier: 
  tankPrefab: {fileID: 6974128938646169096, guid: be210fd3360cccd4dbb784bef45da1ba, type: 3}
  projectilePrefab: {fileID: 5757869135660599572, guid: 00682f7007fa50c41be4480fd75417a5, type: 3}
  movementSpeed: {fileID: 11400000, guid: 7d9e590a63ec5ad42aec4d9a41a34d8e, type: 2}
  fireRateCooldown: {fileID: 11400000, guid: d71cc123f4954864b87fdf066d190223, type: 2}
  projectileLimit: 5
  mineLimit: 0
